{
    "$schema": "http://json-schema.org/draft-04/schema#",
    "title": "Request",
    "description": "A transaction named Request",
    "type": "object",
    "properties": {
        "$class": {
            "type": "string",
            "default": "org.accordproject.cicero.runtime.Request",
            "description": "The class identifier for this type"
        },
        "transactionId": {
            "type": "string",
            "description": "The instance identifier for this type"
        },
        "timestamp": {
            "format": "date-time",
            "type": "string"
        }
    },
    "required": [
        "$class",
        "transactionId",
        "timestamp"
    ]
}