{
    "$schema": "http://json-schema.org/draft-04/schema#",
    "title": "ContractStateResponse",
    "description": "A transaction named ContractStateResponse",
    "type": "object",
    "properties": {
        "$class": {
            "type": "string",
            "default": "sb.protocols.orders.queries.ContractStateResponse",
            "description": "The class identifier for this type"
        },
        "contract": {
            "type": "object",
            "properties": {
                "$class": {
                    "type": "string",
                    "default": "sb.protocols.orders.models.RawCottonSale",
                    "description": "The class identifier for this type"
                },
                "saleDate": {
                    "format": "date-time",
                    "type": "string"
                },
                "saleNumber": {
                    "type": "string"
                },
                "contractRef": {
                    "type": "string"
                },
                "buyerName": {
                    "type": "string"
                },
                "buyerRegistrationNumber": {
                    "type": "string"
                },
                "buyerAddressStreet": {
                    "type": "string"
                },
                "buyerAddressZipCode": {
                    "type": "string"
                },
                "buyerAddressCity": {
                    "type": "string"
                },
                "buyerAddressRegion": {
                    "type": "string"
                },
                "buyerAddressCountry": {
                    "type": "string"
                },
                "buyer": {
                    "type": "object",
                    "properties": {
                        "$class": {
                            "type": "string",
                            "default": "org.accordproject.cicero.contract.AccordParty",
                            "description": "The class identifier for this type"
                        },
                        "partyId": {
                            "type": "string",
                            "description": "The instance identifier for this type"
                        }
                    },
                    "required": [
                        "partyId"
                    ],
                    "description": "An instance of org.accordproject.cicero.contract.AccordParty"
                },
                "sellerName": {
                    "type": "string"
                },
                "sellerRegistrationNumber": {
                    "type": "string"
                },
                "sellerAddressStreet": {
                    "type": "string"
                },
                "sellerAddressZipCode": {
                    "type": "string"
                },
                "sellerAddressCity": {
                    "type": "string"
                },
                "sellerAddressRegion": {
                    "type": "string"
                },
                "sellerAddressCountry": {
                    "type": "string"
                },
                "seller": {
                    "type": "object",
                    "properties": {
                        "$class": {
                            "type": "string",
                            "default": "org.accordproject.cicero.contract.AccordParty",
                            "description": "The class identifier for this type"
                        },
                        "partyId": {
                            "type": "string",
                            "description": "The instance identifier for this type"
                        }
                    },
                    "required": [
                        "partyId"
                    ],
                    "description": "An instance of org.accordproject.cicero.contract.AccordParty"
                },
                "currency": {
                    "enum": [
                        "AED",
                        "AFN",
                        "ALL",
                        "AMD",
                        "ANG",
                        "AOA",
                        "ARS",
                        "AUD",
                        "AWG",
                        "AZN",
                        "BAM",
                        "BBD",
                        "BDT",
                        "BGN",
                        "BHD",
                        "BIF",
                        "BMD",
                        "BND",
                        "BOB",
                        "BOV",
                        "BRL",
                        "BSD",
                        "BTN",
                        "BWP",
                        "BYN",
                        "BZD",
                        "CAD",
                        "CDF",
                        "CHE",
                        "CHF",
                        "CHW",
                        "CLF",
                        "CLP",
                        "CNY",
                        "COP",
                        "COU",
                        "CRC",
                        "CUC",
                        "CUP",
                        "CVE",
                        "CZK",
                        "DJF",
                        "DKK",
                        "DOP",
                        "DZD",
                        "EGP",
                        "ERN",
                        "ETB",
                        "EUR",
                        "FJD",
                        "FKP",
                        "GBP",
                        "GEL",
                        "GHS",
                        "GIP",
                        "GMD",
                        "GNF",
                        "GTQ",
                        "GYD",
                        "HKD",
                        "HNL",
                        "HRK",
                        "HTG",
                        "HUF",
                        "IDR",
                        "ILS",
                        "INR",
                        "IQD",
                        "IRR",
                        "ISK",
                        "JMD",
                        "JOD",
                        "JPY",
                        "KES",
                        "KGS",
                        "KHR",
                        "KMF",
                        "KPW",
                        "KRW",
                        "KWD",
                        "KYD",
                        "KZT",
                        "LAK",
                        "LBP",
                        "LKR",
                        "LRD",
                        "LSL",
                        "LYD",
                        "MAD",
                        "MDL",
                        "MGA",
                        "MKD",
                        "MMK",
                        "MNT",
                        "MOP",
                        "MRU",
                        "MUR",
                        "MVR",
                        "MWK",
                        "MXN",
                        "MXV",
                        "MYR",
                        "MZN",
                        "NAD",
                        "NGN",
                        "NIO",
                        "NOK",
                        "NPR",
                        "NZD",
                        "OMR",
                        "PAB",
                        "PEN",
                        "PGK",
                        "PHP",
                        "PKR",
                        "PLN",
                        "PYG",
                        "QAR",
                        "RON",
                        "RSD",
                        "RUB",
                        "RWF",
                        "SAR",
                        "SBD",
                        "SCR",
                        "SDG",
                        "SEK",
                        "SGD",
                        "SHP",
                        "SLL",
                        "SOS",
                        "SRD",
                        "SSP",
                        "STN",
                        "SVC",
                        "SYP",
                        "SZL",
                        "THB",
                        "TJS",
                        "TMT",
                        "TND",
                        "TOP",
                        "TRY",
                        "TTD",
                        "TWD",
                        "TZS",
                        "UAH",
                        "UGX",
                        "USD",
                        "USN",
                        "UYI",
                        "UYU",
                        "UZS",
                        "VEF",
                        "VND",
                        "VUV",
                        "WST",
                        "XAF",
                        "XAG",
                        "XAU",
                        "XBA",
                        "XBB",
                        "XBC",
                        "XBD",
                        "XCD",
                        "XDR",
                        "XOF",
                        "XPD",
                        "XPF",
                        "XPT",
                        "XSU",
                        "XTS",
                        "XUA",
                        "XXX",
                        "YER",
                        "ZAR",
                        "ZMW",
                        "ZWL"
                    ]
                },
                "weight": {
                    "type": "object",
                    "properties": {
                        "$class": {
                            "type": "string",
                            "default": "sb.protocols.orders.structs.Weight",
                            "description": "The class identifier for this type"
                        },
                        "value": {
                            "type": "number"
                        },
                        "unit": {
                            "enum": [
                                "KG"
                            ]
                        }
                    },
                    "required": [
                        "value",
                        "unit"
                    ],
                    "description": "An instance of sb.protocols.orders.structs.Weight"
                },
                "quality": {
                    "type": "object",
                    "properties": {
                        "$class": {
                            "type": "string",
                            "default": "sb.protocols.orders.structs.CottonQuality",
                            "description": "The class identifier for this type"
                        },
                        "cgrade": {
                            "enum": [
                                "DEAL",
                                "DIRK",
                                "DOLY",
                                "DUNS",
                                "LFY"
                            ]
                        },
                        "cclass": {
                            "enum": [
                                "AX",
                                "A0",
                                "A1",
                                "A2",
                                "B"
                            ]
                        }
                    },
                    "required": [
                        "cgrade",
                        "cclass"
                    ],
                    "description": "An instance of sb.protocols.orders.structs.CottonQuality"
                },
                "allowPartial": {
                    "type": "boolean"
                },
                "allowedVariation": {
                    "type": "number"
                },
                "dealAX": {
                    "type": "number",
                    "default": "16.0"
                },
                "dealA0": {
                    "type": "number",
                    "default": "15.90"
                },
                "dealA1": {
                    "type": "number",
                    "default": "15.65"
                },
                "dealA2": {
                    "type": "number",
                    "default": "14.75"
                },
                "dealB": {
                    "type": "number",
                    "default": "13.20"
                },
                "dirkAX": {
                    "type": "number",
                    "default": "15.0"
                },
                "dirkA0": {
                    "type": "number",
                    "default": "15.50"
                },
                "dirkA1": {
                    "type": "number",
                    "default": "15.25"
                },
                "dirkA2": {
                    "type": "number",
                    "default": "14.90"
                },
                "dirkB": {
                    "type": "number",
                    "default": "12.50"
                },
                "dolyAX": {
                    "type": "number",
                    "default": "15.50"
                },
                "dolyA0": {
                    "type": "number",
                    "default": "14.70"
                },
                "dolyA1": {
                    "type": "number",
                    "default": "14.45"
                },
                "dolyA2": {
                    "type": "number",
                    "default": "13.55"
                },
                "dolyB": {
                    "type": "number",
                    "default": "12.5"
                },
                "dunsA1": {
                    "type": "number",
                    "default": "13.88"
                },
                "dunsA2": {
                    "type": "number",
                    "default": "13.00"
                },
                "dunsB": {
                    "type": "number",
                    "default": "11.70"
                },
                "lfyA1": {
                    "type": "number",
                    "default": "13.22"
                },
                "lfyA2": {
                    "type": "number",
                    "default": "12.75"
                },
                "lfyB": {
                    "type": "number",
                    "default": "11.1"
                },
                "deliveryPeriod": {
                    "type": "object",
                    "properties": {
                        "$class": {
                            "type": "string",
                            "default": "org.accordproject.time.Duration",
                            "description": "The class identifier for this type"
                        },
                        "amount": {
                            "type": "integer"
                        },
                        "unit": {
                            "enum": [
                                "seconds",
                                "minutes",
                                "hours",
                                "days",
                                "weeks"
                            ]
                        }
                    },
                    "required": [
                        "amount",
                        "unit"
                    ],
                    "description": "An instance of org.accordproject.time.Duration"
                },
                "paymentPeriod": {
                    "type": "object",
                    "properties": {
                        "$class": {
                            "type": "string",
                            "default": "org.accordproject.time.Duration",
                            "description": "The class identifier for this type"
                        },
                        "amount": {
                            "type": "integer"
                        },
                        "unit": {
                            "enum": [
                                "seconds",
                                "minutes",
                                "hours",
                                "days",
                                "weeks"
                            ]
                        }
                    },
                    "required": [
                        "amount",
                        "unit"
                    ],
                    "description": "An instance of org.accordproject.time.Duration"
                },
                "workflowId": {
                    "type": "string"
                },
                "workflowAxeOrder": {
                    "type": "string"
                },
                "workflowAxeDelivery": {
                    "type": "string"
                },
                "workflowAxeInvoice": {
                    "type": "string"
                },
                "workflowAxePayment": {
                    "type": "string"
                },
                "contractId": {
                    "type": "string",
                    "description": "The instance identifier for this type"
                },
                "parties": {
                    "type": "array",
                    "items": {
                        "type": "string",
                        "description": "The identifier of an instance of org.accordproject.cicero.contract.AccordParty"
                    }
                }
            },
            "required": [
                "saleDate",
                "saleNumber",
                "buyerName",
                "buyerRegistrationNumber",
                "buyerAddressStreet",
                "buyerAddressZipCode",
                "buyerAddressCity",
                "buyer",
                "sellerName",
                "sellerRegistrationNumber",
                "sellerAddressStreet",
                "sellerAddressZipCode",
                "sellerAddressCity",
                "seller",
                "currency",
                "weight",
                "quality",
                "allowPartial",
                "allowedVariation",
                "dealAX",
                "dealA0",
                "dealA1",
                "dealA2",
                "dealB",
                "dirkAX",
                "dirkA0",
                "dirkA1",
                "dirkA2",
                "dirkB",
                "dolyAX",
                "dolyA0",
                "dolyA1",
                "dolyA2",
                "dolyB",
                "dunsA1",
                "dunsA2",
                "dunsB",
                "lfyA1",
                "lfyA2",
                "lfyB",
                "deliveryPeriod",
                "paymentPeriod",
                "contractId"
            ],
            "description": "An instance of sb.protocols.orders.models.RawCottonSale"
        },
        "state": {
            "type": "object",
            "properties": {
                "$class": {
                    "type": "string",
                    "default": "sb.protocols.orders.models.RawCottonSaleState",
                    "description": "The class identifier for this type"
                },
                "signatureDate": {
                    "format": "date-time",
                    "type": "string"
                },
                "status": {
                    "enum": [
                        "NOT_OPEN",
                        "OPEN",
                        "COMPLETED"
                    ]
                },
                "pod": {
                    "type": "object",
                    "properties": {
                        "$class": {
                            "type": "string",
                            "default": "sb.protocols.orders.structs.PODInfo",
                            "description": "The class identifier for this type"
                        },
                        "ref": {
                            "type": "string"
                        },
                        "date": {
                            "format": "date-time",
                            "type": "string"
                        },
                        "balles": {
                            "type": "array",
                            "items": {
                                "type": "object",
                                "properties": {
                                    "$class": {
                                        "type": "string",
                                        "default": "sb.protocols.orders.structs.BalleInfo",
                                        "description": "The class identifier for this type"
                                    },
                                    "number": {
                                        "type": "string"
                                    },
                                    "lot": {
                                        "type": "string"
                                    },
                                    "quality": {
                                        "type": "object",
                                        "properties": {
                                            "$class": {
                                                "type": "string",
                                                "default": "sb.protocols.orders.structs.CottonQuality",
                                                "description": "The class identifier for this type"
                                            },
                                            "cgrade": {
                                                "enum": [
                                                    "DEAL",
                                                    "DIRK",
                                                    "DOLY",
                                                    "DUNS",
                                                    "LFY"
                                                ]
                                            },
                                            "cclass": {
                                                "enum": [
                                                    "AX",
                                                    "A0",
                                                    "A1",
                                                    "A2",
                                                    "B"
                                                ]
                                            }
                                        },
                                        "required": [
                                            "cgrade",
                                            "cclass"
                                        ],
                                        "description": "An instance of sb.protocols.orders.structs.CottonQuality"
                                    },
                                    "weight": {
                                        "type": "object",
                                        "properties": {
                                            "$class": {
                                                "type": "string",
                                                "default": "sb.protocols.orders.structs.Weight",
                                                "description": "The class identifier for this type"
                                            },
                                            "value": {
                                                "type": "number"
                                            },
                                            "unit": {
                                                "enum": [
                                                    "KG"
                                                ]
                                            }
                                        },
                                        "required": [
                                            "value",
                                            "unit"
                                        ],
                                        "description": "An instance of sb.protocols.orders.structs.Weight"
                                    }
                                },
                                "required": [
                                    "number",
                                    "lot",
                                    "quality",
                                    "weight"
                                ],
                                "description": "An instance of sb.protocols.orders.structs.BalleInfo"
                            }
                        },
                        "totalWeight": {
                            "type": "object",
                            "properties": {
                                "$class": {
                                    "type": "string",
                                    "default": "sb.protocols.orders.structs.Weight",
                                    "description": "The class identifier for this type"
                                },
                                "value": {
                                    "type": "number"
                                },
                                "unit": {
                                    "enum": [
                                        "KG"
                                    ]
                                }
                            },
                            "required": [
                                "value",
                                "unit"
                            ],
                            "description": "An instance of sb.protocols.orders.structs.Weight"
                        },
                        "totalValue": {
                            "type": "object",
                            "properties": {
                                "$class": {
                                    "type": "string",
                                    "default": "sb.protocols.orders.structs.Amount",
                                    "description": "The class identifier for this type"
                                },
                                "value": {
                                    "type": "number"
                                },
                                "currency": {
                                    "enum": [
                                        "AED",
                                        "AFN",
                                        "ALL",
                                        "AMD",
                                        "ANG",
                                        "AOA",
                                        "ARS",
                                        "AUD",
                                        "AWG",
                                        "AZN",
                                        "BAM",
                                        "BBD",
                                        "BDT",
                                        "BGN",
                                        "BHD",
                                        "BIF",
                                        "BMD",
                                        "BND",
                                        "BOB",
                                        "BOV",
                                        "BRL",
                                        "BSD",
                                        "BTN",
                                        "BWP",
                                        "BYN",
                                        "BZD",
                                        "CAD",
                                        "CDF",
                                        "CHE",
                                        "CHF",
                                        "CHW",
                                        "CLF",
                                        "CLP",
                                        "CNY",
                                        "COP",
                                        "COU",
                                        "CRC",
                                        "CUC",
                                        "CUP",
                                        "CVE",
                                        "CZK",
                                        "DJF",
                                        "DKK",
                                        "DOP",
                                        "DZD",
                                        "EGP",
                                        "ERN",
                                        "ETB",
                                        "EUR",
                                        "FJD",
                                        "FKP",
                                        "GBP",
                                        "GEL",
                                        "GHS",
                                        "GIP",
                                        "GMD",
                                        "GNF",
                                        "GTQ",
                                        "GYD",
                                        "HKD",
                                        "HNL",
                                        "HRK",
                                        "HTG",
                                        "HUF",
                                        "IDR",
                                        "ILS",
                                        "INR",
                                        "IQD",
                                        "IRR",
                                        "ISK",
                                        "JMD",
                                        "JOD",
                                        "JPY",
                                        "KES",
                                        "KGS",
                                        "KHR",
                                        "KMF",
                                        "KPW",
                                        "KRW",
                                        "KWD",
                                        "KYD",
                                        "KZT",
                                        "LAK",
                                        "LBP",
                                        "LKR",
                                        "LRD",
                                        "LSL",
                                        "LYD",
                                        "MAD",
                                        "MDL",
                                        "MGA",
                                        "MKD",
                                        "MMK",
                                        "MNT",
                                        "MOP",
                                        "MRU",
                                        "MUR",
                                        "MVR",
                                        "MWK",
                                        "MXN",
                                        "MXV",
                                        "MYR",
                                        "MZN",
                                        "NAD",
                                        "NGN",
                                        "NIO",
                                        "NOK",
                                        "NPR",
                                        "NZD",
                                        "OMR",
                                        "PAB",
                                        "PEN",
                                        "PGK",
                                        "PHP",
                                        "PKR",
                                        "PLN",
                                        "PYG",
                                        "QAR",
                                        "RON",
                                        "RSD",
                                        "RUB",
                                        "RWF",
                                        "SAR",
                                        "SBD",
                                        "SCR",
                                        "SDG",
                                        "SEK",
                                        "SGD",
                                        "SHP",
                                        "SLL",
                                        "SOS",
                                        "SRD",
                                        "SSP",
                                        "STN",
                                        "SVC",
                                        "SYP",
                                        "SZL",
                                        "THB",
                                        "TJS",
                                        "TMT",
                                        "TND",
                                        "TOP",
                                        "TRY",
                                        "TTD",
                                        "TWD",
                                        "TZS",
                                        "UAH",
                                        "UGX",
                                        "USD",
                                        "USN",
                                        "UYI",
                                        "UYU",
                                        "UZS",
                                        "VEF",
                                        "VND",
                                        "VUV",
                                        "WST",
                                        "XAF",
                                        "XAG",
                                        "XAU",
                                        "XBA",
                                        "XBB",
                                        "XBC",
                                        "XBD",
                                        "XCD",
                                        "XDR",
                                        "XOF",
                                        "XPD",
                                        "XPF",
                                        "XPT",
                                        "XSU",
                                        "XTS",
                                        "XUA",
                                        "XXX",
                                        "YER",
                                        "ZAR",
                                        "ZMW",
                                        "ZWL"
                                    ]
                                }
                            },
                            "required": [
                                "value"
                            ],
                            "description": "An instance of sb.protocols.orders.structs.Amount"
                        },
                        "location": {
                            "type": "object",
                            "properties": {
                                "$class": {
                                    "type": "string",
                                    "default": "org.accordproject.address.PostalAddress",
                                    "description": "The class identifier for this type"
                                },
                                "streetAddress": {
                                    "type": "string"
                                },
                                "postalCode": {
                                    "type": "string"
                                },
                                "postOfficeBoxNumber": {
                                    "type": "string"
                                },
                                "addressRegion": {
                                    "type": "string"
                                },
                                "addressLocality": {
                                    "type": "string"
                                },
                                "addressCountry": {
                                    "type": "string"
                                }
                            },
                            "required": [],
                            "description": "An instance of org.accordproject.address.PostalAddress"
                        },
                        "desc": {
                            "type": "string"
                        }
                    },
                    "required": [
                        "ref",
                        "date",
                        "balles",
                        "totalWeight",
                        "totalValue",
                        "location"
                    ],
                    "description": "An instance of sb.protocols.orders.structs.PODInfo"
                },
                "invoice": {
                    "type": "object",
                    "properties": {
                        "$class": {
                            "type": "string",
                            "default": "sb.protocols.orders.structs.InvoiceInfo",
                            "description": "The class identifier for this type"
                        },
                        "ref": {
                            "type": "string"
                        },
                        "date": {
                            "format": "date-time",
                            "type": "string"
                        },
                        "amount": {
                            "type": "object",
                            "properties": {
                                "$class": {
                                    "type": "string",
                                    "default": "sb.protocols.orders.structs.Amount",
                                    "description": "The class identifier for this type"
                                },
                                "value": {
                                    "type": "number"
                                },
                                "currency": {
                                    "enum": [
                                        "AED",
                                        "AFN",
                                        "ALL",
                                        "AMD",
                                        "ANG",
                                        "AOA",
                                        "ARS",
                                        "AUD",
                                        "AWG",
                                        "AZN",
                                        "BAM",
                                        "BBD",
                                        "BDT",
                                        "BGN",
                                        "BHD",
                                        "BIF",
                                        "BMD",
                                        "BND",
                                        "BOB",
                                        "BOV",
                                        "BRL",
                                        "BSD",
                                        "BTN",
                                        "BWP",
                                        "BYN",
                                        "BZD",
                                        "CAD",
                                        "CDF",
                                        "CHE",
                                        "CHF",
                                        "CHW",
                                        "CLF",
                                        "CLP",
                                        "CNY",
                                        "COP",
                                        "COU",
                                        "CRC",
                                        "CUC",
                                        "CUP",
                                        "CVE",
                                        "CZK",
                                        "DJF",
                                        "DKK",
                                        "DOP",
                                        "DZD",
                                        "EGP",
                                        "ERN",
                                        "ETB",
                                        "EUR",
                                        "FJD",
                                        "FKP",
                                        "GBP",
                                        "GEL",
                                        "GHS",
                                        "GIP",
                                        "GMD",
                                        "GNF",
                                        "GTQ",
                                        "GYD",
                                        "HKD",
                                        "HNL",
                                        "HRK",
                                        "HTG",
                                        "HUF",
                                        "IDR",
                                        "ILS",
                                        "INR",
                                        "IQD",
                                        "IRR",
                                        "ISK",
                                        "JMD",
                                        "JOD",
                                        "JPY",
                                        "KES",
                                        "KGS",
                                        "KHR",
                                        "KMF",
                                        "KPW",
                                        "KRW",
                                        "KWD",
                                        "KYD",
                                        "KZT",
                                        "LAK",
                                        "LBP",
                                        "LKR",
                                        "LRD",
                                        "LSL",
                                        "LYD",
                                        "MAD",
                                        "MDL",
                                        "MGA",
                                        "MKD",
                                        "MMK",
                                        "MNT",
                                        "MOP",
                                        "MRU",
                                        "MUR",
                                        "MVR",
                                        "MWK",
                                        "MXN",
                                        "MXV",
                                        "MYR",
                                        "MZN",
                                        "NAD",
                                        "NGN",
                                        "NIO",
                                        "NOK",
                                        "NPR",
                                        "NZD",
                                        "OMR",
                                        "PAB",
                                        "PEN",
                                        "PGK",
                                        "PHP",
                                        "PKR",
                                        "PLN",
                                        "PYG",
                                        "QAR",
                                        "RON",
                                        "RSD",
                                        "RUB",
                                        "RWF",
                                        "SAR",
                                        "SBD",
                                        "SCR",
                                        "SDG",
                                        "SEK",
                                        "SGD",
                                        "SHP",
                                        "SLL",
                                        "SOS",
                                        "SRD",
                                        "SSP",
                                        "STN",
                                        "SVC",
                                        "SYP",
                                        "SZL",
                                        "THB",
                                        "TJS",
                                        "TMT",
                                        "TND",
                                        "TOP",
                                        "TRY",
                                        "TTD",
                                        "TWD",
                                        "TZS",
                                        "UAH",
                                        "UGX",
                                        "USD",
                                        "USN",
                                        "UYI",
                                        "UYU",
                                        "UZS",
                                        "VEF",
                                        "VND",
                                        "VUV",
                                        "WST",
                                        "XAF",
                                        "XAG",
                                        "XAU",
                                        "XBA",
                                        "XBB",
                                        "XBC",
                                        "XBD",
                                        "XCD",
                                        "XDR",
                                        "XOF",
                                        "XPD",
                                        "XPF",
                                        "XPT",
                                        "XSU",
                                        "XTS",
                                        "XUA",
                                        "XXX",
                                        "YER",
                                        "ZAR",
                                        "ZMW",
                                        "ZWL"
                                    ]
                                }
                            },
                            "required": [
                                "value"
                            ],
                            "description": "An instance of sb.protocols.orders.structs.Amount"
                        },
                        "desc": {
                            "type": "string"
                        }
                    },
                    "required": [
                        "ref",
                        "date",
                        "amount"
                    ],
                    "description": "An instance of sb.protocols.orders.structs.InvoiceInfo"
                },
                "payments": {
                    "type": "array",
                    "items": {
                        "type": "object",
                        "properties": {
                            "$class": {
                                "type": "string",
                                "default": "sb.protocols.orders.structs.PaymentInfo",
                                "description": "The class identifier for this type"
                            },
                            "ref": {
                                "type": "string"
                            },
                            "date": {
                                "format": "date-time",
                                "type": "string"
                            },
                            "amount": {
                                "type": "object",
                                "properties": {
                                    "$class": {
                                        "type": "string",
                                        "default": "sb.protocols.orders.structs.Amount",
                                        "description": "The class identifier for this type"
                                    },
                                    "value": {
                                        "type": "number"
                                    },
                                    "currency": {
                                        "enum": [
                                            "AED",
                                            "AFN",
                                            "ALL",
                                            "AMD",
                                            "ANG",
                                            "AOA",
                                            "ARS",
                                            "AUD",
                                            "AWG",
                                            "AZN",
                                            "BAM",
                                            "BBD",
                                            "BDT",
                                            "BGN",
                                            "BHD",
                                            "BIF",
                                            "BMD",
                                            "BND",
                                            "BOB",
                                            "BOV",
                                            "BRL",
                                            "BSD",
                                            "BTN",
                                            "BWP",
                                            "BYN",
                                            "BZD",
                                            "CAD",
                                            "CDF",
                                            "CHE",
                                            "CHF",
                                            "CHW",
                                            "CLF",
                                            "CLP",
                                            "CNY",
                                            "COP",
                                            "COU",
                                            "CRC",
                                            "CUC",
                                            "CUP",
                                            "CVE",
                                            "CZK",
                                            "DJF",
                                            "DKK",
                                            "DOP",
                                            "DZD",
                                            "EGP",
                                            "ERN",
                                            "ETB",
                                            "EUR",
                                            "FJD",
                                            "FKP",
                                            "GBP",
                                            "GEL",
                                            "GHS",
                                            "GIP",
                                            "GMD",
                                            "GNF",
                                            "GTQ",
                                            "GYD",
                                            "HKD",
                                            "HNL",
                                            "HRK",
                                            "HTG",
                                            "HUF",
                                            "IDR",
                                            "ILS",
                                            "INR",
                                            "IQD",
                                            "IRR",
                                            "ISK",
                                            "JMD",
                                            "JOD",
                                            "JPY",
                                            "KES",
                                            "KGS",
                                            "KHR",
                                            "KMF",
                                            "KPW",
                                            "KRW",
                                            "KWD",
                                            "KYD",
                                            "KZT",
                                            "LAK",
                                            "LBP",
                                            "LKR",
                                            "LRD",
                                            "LSL",
                                            "LYD",
                                            "MAD",
                                            "MDL",
                                            "MGA",
                                            "MKD",
                                            "MMK",
                                            "MNT",
                                            "MOP",
                                            "MRU",
                                            "MUR",
                                            "MVR",
                                            "MWK",
                                            "MXN",
                                            "MXV",
                                            "MYR",
                                            "MZN",
                                            "NAD",
                                            "NGN",
                                            "NIO",
                                            "NOK",
                                            "NPR",
                                            "NZD",
                                            "OMR",
                                            "PAB",
                                            "PEN",
                                            "PGK",
                                            "PHP",
                                            "PKR",
                                            "PLN",
                                            "PYG",
                                            "QAR",
                                            "RON",
                                            "RSD",
                                            "RUB",
                                            "RWF",
                                            "SAR",
                                            "SBD",
                                            "SCR",
                                            "SDG",
                                            "SEK",
                                            "SGD",
                                            "SHP",
                                            "SLL",
                                            "SOS",
                                            "SRD",
                                            "SSP",
                                            "STN",
                                            "SVC",
                                            "SYP",
                                            "SZL",
                                            "THB",
                                            "TJS",
                                            "TMT",
                                            "TND",
                                            "TOP",
                                            "TRY",
                                            "TTD",
                                            "TWD",
                                            "TZS",
                                            "UAH",
                                            "UGX",
                                            "USD",
                                            "USN",
                                            "UYI",
                                            "UYU",
                                            "UZS",
                                            "VEF",
                                            "VND",
                                            "VUV",
                                            "WST",
                                            "XAF",
                                            "XAG",
                                            "XAU",
                                            "XBA",
                                            "XBB",
                                            "XBC",
                                            "XBD",
                                            "XCD",
                                            "XDR",
                                            "XOF",
                                            "XPD",
                                            "XPF",
                                            "XPT",
                                            "XSU",
                                            "XTS",
                                            "XUA",
                                            "XXX",
                                            "YER",
                                            "ZAR",
                                            "ZMW",
                                            "ZWL"
                                        ]
                                    }
                                },
                                "required": [
                                    "value"
                                ],
                                "description": "An instance of sb.protocols.orders.structs.Amount"
                            },
                            "desc": {
                                "type": "string"
                            }
                        },
                        "required": [
                            "ref",
                            "date",
                            "amount"
                        ],
                        "description": "An instance of sb.protocols.orders.structs.PaymentInfo"
                    }
                },
                "deliveryObligation": {
                    "enum": [
                        "NONE",
                        "EMITTED",
                        "FULFILLED"
                    ]
                },
                "paymentObligation": {
                    "enum": [
                        "NONE",
                        "EMITTED",
                        "FULFILLED"
                    ]
                },
                "stateId": {
                    "type": "string",
                    "description": "The instance identifier for this type"
                }
            },
            "required": [
                "status",
                "deliveryObligation",
                "paymentObligation",
                "stateId"
            ],
            "description": "An instance of sb.protocols.orders.models.RawCottonSaleState"
        },
        "transactionId": {
            "type": "string",
            "description": "The instance identifier for this type"
        },
        "timestamp": {
            "format": "date-time",
            "type": "string"
        }
    },
    "required": [
        "$class",
        "contract",
        "state",
        "transactionId",
        "timestamp"
    ]
}