{
    "$schema": "http://json-schema.org/draft-04/schema#",
    "title": "BalleInfo",
    "description": "A concept named BalleInfo",
    "type": "object",
    "properties": {
        "$class": {
            "type": "string",
            "default": "sb.protocols.orders.structs.BalleInfo",
            "description": "The class identifier for this type"
        },
        "number": {
            "type": "string"
        },
        "lot": {
            "type": "string"
        },
        "quality": {
            "type": "object",
            "properties": {
                "$class": {
                    "type": "string",
                    "default": "sb.protocols.orders.structs.CottonQuality",
                    "description": "The class identifier for this type"
                },
                "cgrade": {
                    "enum": [
                        "DEAL",
                        "DIRK",
                        "DOLY",
                        "DUNS",
                        "LFY"
                    ]
                },
                "cclass": {
                    "enum": [
                        "AX",
                        "A0",
                        "A1",
                        "A2",
                        "B"
                    ]
                }
            },
            "required": [
                "cgrade",
                "cclass"
            ],
            "description": "An instance of sb.protocols.orders.structs.CottonQuality"
        },
        "weight": {
            "type": "object",
            "properties": {
                "$class": {
                    "type": "string",
                    "default": "sb.protocols.orders.structs.Weight",
                    "description": "The class identifier for this type"
                },
                "value": {
                    "type": "number"
                },
                "unit": {
                    "enum": [
                        "KG"
                    ]
                }
            },
            "required": [
                "value",
                "unit"
            ],
            "description": "An instance of sb.protocols.orders.structs.Weight"
        }
    },
    "required": [
        "$class",
        "number",
        "lot",
        "quality",
        "weight"
    ]
}