{
    "$class": "sb.protocols.orders.queries.DeliveryRequest",
    "podRef": "BACKUP-1234456", 
    "podDate": "2019/03/21",
    "balles": [
        {
            "$class": "sb.protocols.orders.structs.BalleInfo",
            "number": "1", 
            "lot": "100",
            "weight": {
                "value": 100, 
                "unit": "KG"
            }, 
            "quality": {
                "cgrade": "DEAL", 
                "cclass": "A1"
            }
        },
        {
            "$class": "sb.protocols.orders.structs.BalleInfo",
            "number": "2", 
            "lot": "100",
            "weight": {
                "value": 200, 
                "unit": "KG"
            }, 
            "quality": {
                "cgrade": "DOLY", 
                "cclass": "AX"
            }
        }
    ]
}